…
 Pittsburgh Pirates had the biggest percentage gain in wins between 2010
and 2014.

## 4.3 Do log increases in payroll imply better performance?

    #scatterplot
    datapay_agg <- payroll %>%
      inner_join(win, by = c("team" = "team")) %>%
      select(team,diff_sum,pct)
    datapay_agg

    ## # A tibble: 30 × 3
    ##    team                  diff_sum   pct
    ##    <chr>                    <dbl> <dbl>
    ##  1 Los Angeles Dodgers      0.851  5.42
    ##  2 Washington Nationals     0.820  6.22
    ##  3 San Diego Padres         0.744  4.33
    ##  4 Texas Rangers            0.684  4.86
    ##  5 San Francisco Giants     0.629  4.74
    ##  6 Toronto Blue Jays        0.493  4.66
    ##  7 Pittsburgh Pirates       0.472  6.84
    ##  8 Baltimore Orioles        0.470  6.20
    ##  9 Philadelphia Phillies    0.466  4.39
    ## 10 Cincinnati Reds          0.460  4.76
    ## # … with 20 more rows
…
